PCBNEW-LibModule-V1  
# encoding utf-8
Units mm
$INDEX
78XXS
$EndINDEX
$MODULE 78XXS
Po 0 0 0 15 00000000 00000000 ~~
Li 78XXS
Cd <b>VOLTAGE REGULATOR</b>
Sc 00000000
At STD
Op 0 0 0
.SolderMask 0
.SolderPaste 0
T0 -2.54477 5.42037 1.00188 1.00188 0 0.05 N V 21 "78XXS"
T1 -1.90532 6.98617 1.00017 1.00017 0 0.05 N V 21 "VAL**"
DS 4.826 4.318 5.08 4.064 0.1524 21
DS 4.826 4.318 -4.826 4.318 0.1524 21
DS -5.08 4.064 -4.826 4.318 0.1524 21
DS 5.08 1.143 5.08 4.064 0.1524 21
DS -5.08 4.064 -5.08 1.143 0.1524 21
DC -4.6228 3.7084 -4.3688 3.7084 0 21
T2 -0.635343 3.812060 1 1 0 .05 N V 51 "-"
T2 -3.179020 3.814830 1 1 0 .05 N V 51 "I"
T2 1.906470 3.812940 1 1 0 .05 N V 51 "O"
DP 0 0 0 0 4 0 21
Dl -5.33578 0
Dl -3.429 0
Dl -3.429 1.27042
Dl -5.33578 1.27042
DP 0 0 0 0 4 0 21
Dl -3.43431 0
Dl -1.651 0
Dl -1.651 0.763181
Dl -3.43431 0.763181
DP 0 0 0 0 4 0 21
Dl -1.65378 0
Dl -0.889 0
Dl -0.889 1.27214
Dl -1.65378 1.27214
DP 0 0 0 0 4 0 21
Dl -0.890568 0
Dl 0.889 0
Dl 0.889 0.763344
Dl -0.890568 0.763344
DP 0 0 0 0 4 0 21
Dl 0.889389 0
Dl 1.651 0
Dl 1.651 1.27056
Dl 0.889389 1.27056
DP 0 0 0 0 4 0 21
Dl 1.65359 0
Dl 3.429 0
Dl 3.429 0.763194
Dl 1.65359 0.763194
DP 0 0 0 0 4 0 21
Dl 3.43315 0
Dl 5.334 0
Dl 5.334 1.27154
Dl 3.43315 1.27154
DP 0 0 0 0 4 0 24
Dl -3.43578 0.762
Dl -1.651 0.762
Dl -1.651 1.27251
Dl -3.43578 1.27251
DP 0 0 0 0 4 0 24
Dl -0.889317 0.762
Dl 0.889 0.762
Dl 0.889 1.27045
Dl -0.889317 1.27045
DP 0 0 0 0 4 0 24
Dl 1.65254 0.762
Dl 3.429 0.762
Dl 3.429 1.27119
Dl 1.65254 1.27119
$PAD
Sh "IN" O 3.048 1.524 0 0 900
Dr 1.016 0 0
At STD N 00C0FFFF
.SolderMask 0
Ne 0 ""
Po -2.54 2.54
$EndPAD
$PAD
Sh "GND" O 3.048 1.524 0 0 900
Dr 1.016 0 0
At STD N 00C0FFFF
.SolderMask 0
Ne 0 ""
Po 0 2.54
$EndPAD
$PAD
Sh "OUT" O 3.048 1.524 0 0 900
Dr 1.016 0 0
At STD N 00C0FFFF
.SolderMask 0
Ne 0 ""
Po 2.54 2.54
$EndPAD
$EndMODULE 78XXS
